Diego P.F. Trindade - #1 Data wrangling in ecology with tidyverse
…
Besides selecting columns and filtering rows we can also create new columns with mutate. Let’s filter only the study number 10 and create a new column to check how many species and years they have sampled in this study. We can use mutate and n_distinct() to achieve that.

biotime %>% 
  filter(id == 10) %>%
  mutate(total_sp = n_distinct(sp),
         total_y = n_distinct(year))

# A tibble: 1,406 × 8
      id  year plot  abundance biomass sp                     total_sp total_y
   <dbl> <dbl> <chr>     <dbl>   <dbl> <chr>                     <int>   <int>
 1    10  1984 12            1       0 Acer rubrum                  25       3
 2    10  1984 12            3       0 Acer saccharum               25       3
 3    10  1984 12            1       0 Acer spicatum                25       3
 4    10  1984 12           12       0 Corylus cornuta              25       3
 5    10  1984 12            1       0 Populus pinnata              25       3
 6    10  1984 12           20       0 Acer rubrum                  25       3
 7    10  1984 12           14       0 Acer saccharum               25       3
 8    10  1984 12            1       0 Toxicodendron radicans       25       3
 9    10  1984 12            5       0 Acer spicatum                25       3
10    10  1984 12            7       0 Corylus cornuta              25       3
# ℹ 1,396 more rows

In this study we have 25 species and three different years.

Now let’s say we want to know how many species we have per year. To get that, we can use the function group_by.

biotime %>% 
  filter(id == 10) %>%
  group_by(year) %>% 
  mutate(total_sp = n_distinct(sp))

# A tibble: 1,406 × 7
# Groups:   year [3]
      id  year plot  abundance biomass sp                     total_sp
   <dbl> <dbl> <chr>     <dbl>   <dbl> <chr>                     <int>
 1    10  1984 12            1       0 Acer rubrum                  22
 2    10  1984 12            3       0 Acer saccharum               22
 3    10  1984 12            1       0 Acer spicatum                22
 4    10  1984 12           12       0 Corylus cornuta              22
 5    10  1984 12            1       0 Populus pinnata              22
 6    10  1984 12           20       0 Acer rubrum                  22
 7    10  1984 12           14       0 Acer saccharum               22
 8    10  1984 12            1       0 Toxicodendron radicans       22
 9    10  1984 12            5       0 Acer spicatum                22
10    10  1984 12            7       0 Corylus cornuta              22
# ℹ 1,396 more rows
…
Now we can see the number of species per year, but the other columns were deleted. Therefore, both mutate and summaries give us the same result but in different ways, you have to choose which one fits better your purpose when dealing with the data.

We can also combine summarise and mutate to get, for example, the frequency of species

biotime %>%
  filter(id == 10) %>%
  group_by(sp) %>% 
  summarise (total = n()) %>%
  mutate(freq = total / sum(total))

# A tibble: 25 × 3
   sp                  total     freq
   <chr>               <int>    <dbl>
 1 Acer rubrum           185 0.132   
 2 Acer saccharum        290 0.206   
 3 Acer spicatum         146 0.104   
 4 Amelanchier gravida     1 0.000711
 5 Amelanchier laevis     30 0.0213  
 6 Betula papyrifera      10 0.00711 
 7 Cornus racemosa         6 0.00427 
 8 Cornus rugosa          35 0.0249  
 9 Corylus cornuta       244 0.174   
10 Diervilla lonicera     14 0.00996 
# ℹ 15 more rows

Note that I’ve grouped by “species”. We could also check the frequency of each species per year, adding the variable “year” in group_by().

biotime %>% 
  filter(id == 10) %>%
  group_by(sp,year) %>% 
  summarise (total = n()) %>%
  mutate(freq = total / sum(total))

# A tibble: 62 × 4
# Groups:   sp [25]
   sp                   year total  freq
   <chr>               <dbl> <int> <dbl>
 1 Acer rubrum          1984    77 0.416
 2 Acer rubrum          1992    68 0.368
 3 Acer rubrum          1996    40 0.216
 4 Acer saccharum       1984   105 0.362
 5 Acer saccharum       1992   109 0.376
 6 Acer saccharum       1996    76 0.262
 7 Acer spicatum        1984    62 0.425
 8 Acer spicatum        1992    55 0.377
 9 Acer spicatum        1996    29 0.199
10 Amelanchier gravida  1984     1 1    
# ℹ 52 more rows

tidyr - the art of pivoting data

As ecologists, we have to deal with data frames either in long or wide formats all the time. Knowing how to transform the data into both formats, in R, is very handy and safe, because we don’t need to create several .csv files, maintaining the original data intact, decreasing the chances of messing up it.

The most important functions to transform data frames in tidy are pivot_longer() and pivot_wider(). These functions have been improved constantly. Out there, you will find reshape2 package, melt, spread and gather. Those are the old school functions to transform data frames. I’m slowly moving from spread/gather into pivot_wider()/pivot_longer(). Then, let’s try to transform our data into both wide and long formats using the new functions.

Let’s use the same example (study id 10) to transform the data into the wide format. We use pivot_wider(), specifying that the species names present in “sp” column will be the columns of the new object (names_from = "sp") and the values present in “abundance” will be the row values (values_from = "abundance").

biotime %>% 
  filter(id == 10) %>%
  pivot_wider(names_from = "sp", values_from = "abundance")

# A tibble: 47 × 29
      id  year plot  biomass `Acer rubrum` `Acer saccharum` `Acer spicatum`
   <dbl> <dbl> <chr>   <dbl> <list>        <list>           <list>         
 1    10  1984 12          0 <dbl [4]>     <dbl [3]>        <dbl [2]>      
 2    10  1984 1           0 <dbl [4]>     <dbl [4]>        <dbl [4]>      
 3    10  1984 2           0 <dbl [4]>     <dbl [8]>        <dbl [8]>      
 4    10  1984 34          0 <dbl [4]>     <dbl [6]>        <dbl [8]>      
 5    10  1984 35          0 <dbl [4]>     <dbl [10]>       <dbl [5]>      
 6    10  1984 36          0 <dbl [4]>     <dbl [8]>        <NULL>         
 7    10  1984 37          0 <dbl [3]>     <dbl [10]>       <NULL>         
 8    10  1984 38          0 <dbl [4]>     <dbl [6]>        <NULL>         
 9    10  1984 39          0 <dbl [3]>     <dbl [4]>        <NULL>         
10    10  1984 40          0 <dbl [2]>     <dbl [2]>        <dbl [6]>      
# ℹ 37 more rows
# ℹ 22 more variables: `Corylus cornuta` <list>, `Populus pinnata` <list>,
#   `Toxicodendron radicans` <list>, `Diervilla lonicera` <list>,
#   `Populus sp` <list>, `Cornus rugosa` <list>, `Prunus virginiana` <list>,
#   `Rubus flagellaris` <list>, `Viburnum rafinesquianum` <list>,
#   `Quercus rubra` <list>, `Vaccinium angustifolium` <list>,
#   `Pinus strobus` <list>, `Ostrya virginiana` <list>, …

Oops.. something went wrong. It transformed our data frame but in an odd way. The warning says that our data is not uniquely identified, meaning that the function can’t recognize each row, separately, in our data frame. To tackle this issue, we can simply bring the row names to a column, identifying each row, with the function rownames_to_column(). Let´s try again.

biotime %>% 
  filter(id == 10) %>%
  rownames_to_column() %>% 
  pivot_wider(names_from = "sp", values_from = "abundance")

# A tibble: 1,406 × 30
   rowname    id  year plot  biomass `Acer rubrum` `Acer saccharum`
   <chr>   <dbl> <dbl> <chr>   <dbl>         <dbl>            <dbl>
 1 1          10  1984 12          0             1               NA
 2 2          10  1984 12          0            NA                3
 3 3          10  1984 12          0            NA               NA
 4 4          10  1984 12          0            NA               NA
 5 5          10  1984 12          0            NA               NA
 6 6          10  1984 12          0            20               NA
 7 7          10  1984 12          0            NA               14
 8 8          10  1984 12          0            NA               NA
 9 9          10  1984 12          0            NA               NA
10 10         10  1984 12          0            NA               NA
# ℹ 1,396 more rows
# ℹ 23 more variables: `Acer spicatum` <dbl>, `Corylus cornuta` <dbl>,
#   `Populus pinnata` <dbl>, `Toxicodendron radicans` <dbl>,
#   `Diervilla lonicera` <dbl>, `Populus sp` <dbl>, `Cornus rugosa` <dbl>,
#   `Prunus virginiana` <dbl>, `Rubus flagellaris` <dbl>,
#   `Viburnum rafinesquianum` <dbl>, `Quercus rubra` <dbl>,
#   `Vaccinium angustifolium` <dbl>, `Pinus strobus` <dbl>, …

Ok. It seems we are getting closer. Now we have the study 10 data frame in the wide format but when the species is absent we have NA’s. To tackle this, we add the argument values_fill to our pivot_wider() function.

biotime %>% 
  filter(id == 10) %>%
  rownames_to_column() %>% 
  pivot_wider(names_from = "sp", values_from = "abundance", 
              values_fill = list(abundance=0))

# A tibble: 1,406 × 30
   rowname    id  year plot  biomass `Acer rubrum` `Acer saccharum`
   <chr>   <dbl> <dbl> <chr>   <dbl>         <dbl>            <dbl>
 1 1          10  1984 12          0             1                0
 2 2          10  1984 12          0             0                3
 3 3          10  1984 12          0             0                0
 4 4          10  1984 12          0             0                0
 5 5          10  1984 12          0             0                0
 6 6          10  1984 12          0            20                0
 7 7          10  1984 12          0             0               14
 8 8          10  1984 12          0             0                0
 9 9          10  1984 12          0             0                0
10 10         10  1984 12          0             0                0
# ℹ 1,396 more rows
# ℹ 23 more variables: `Acer spicatum` <dbl>, `Corylus cornuta` <dbl>,
#   `Populus pinnata` <dbl>, `Toxicodendron radicans` <dbl>,
#   `Diervilla lonicera` <dbl>, `Populus sp` <dbl>, `Cornus rugosa` <dbl>,
#   `Prunus virginiana` <dbl>, `Rubus flagellaris` <dbl>,
#   `Viburnum rafinesquianum` <dbl>, `Quercus rubra` <dbl>,
#   `Vaccinium angustifolium` <dbl>, `Pinus strobus` <dbl>, …
…
Now let´s transform our data into the other way round, from wide into long format. For that, we can use the function pivot_longer()

biotime_wider %>% 
  pivot_longer(names_to = "sp", values_to = "abundance")

Error in `pivot_longer()`:
! `cols` must select at least one column.

Error. When pivoting longer, we have to pay attention to the other columns we may have. In the biotime_wider object we have id, year, plot, biomass, id_rows and species names. We want to transform only species names and values (abundance) though. In this case, we have to omit the other columns we don’t want to transform.

biotime_wider %>% 
  pivot_longer(-c(id:id_rows),names_to = "sp", values_to = "abundance")

# A tibble: 35,150 × 7
      id  year plot  biomass id_rows sp                     abundance
   <dbl> <dbl> <chr>   <dbl>   <int> <chr>                      <dbl>
 1    10  1984 12          0       1 Acer rubrum                    1
 2    10  1984 12          0       1 Acer saccharum                 0
 3    10  1984 12          0       1 Acer spicatum                  0
 4    10  1984 12          0       1 Corylus cornuta                0
 5    10  1984 12          0       1 Populus pinnata                0
 6    10  1984 12          0       1 Toxicodendron radicans         0
 7    10  1984 12          0       1 Diervilla lonicera             0
 8    10  1984 12          0       1 Populus sp                     0
 9    10  1984 12          0       1 Cornus rugosa                  0
10    10  1984 12          0       1 Prunus virginiana              0
# ℹ 35,140 more rows
…
Although those functions are useful to explore big data sets, most of the time, specially when working with multiple variables, filtering each one and examining them separately can be time consuming. For example, let’s say we want to transform our current data frame (merge_df) from long into wide format, as we did before. The first time we transformed our data, we had a single study (id=10) and taxa. Now we have multiple studies and taxa. If we try pivot_wider(), plant and bird species names, for example, will be assigned as columns, making things difficult to disentangle afterwards. An useful way to avoid this is to split our data frame into lists based on each taxa we have. Then, we can apply the function we want for all elements of that list at once. We can do that using the package purrr, which has plenty of functions that make ecologists` life a bit easier in that sense. Let’s try to understand how this package works.

First, let’s create different lists based on different taxa with the split() function:

split_taxa <- merge_df %>% 
             split(.$TAXA)

head(split_taxa)

$All
# A tibble: 326,527 × 15
      id  year plot  abundance biomass sp              REALM  CLIMATE HABITAT   
   <dbl> <dbl> <chr>     <dbl>   <dbl> <chr>           <chr>  <chr>   <chr>     
 1   166  1979 <NA>          5       0 Puffinus gravis Marine Global  Oceanic w…
 2   166  1979 <NA>          2       0 Puffinus gravis Marine Global  Oceanic w…
 3   166  1979 <NA>         15       0 Puffinus gravis Marine Global  Oceanic w…
 4   166  1979 <NA>         23       0 Puffinus gravis Marine Global  Oceanic w…
 5   166  1979 <NA>         20       0 Puffinus gravis Marine Global  Oceanic w…
 6   166  1979 <NA>         20       0 Puffinus gravis Marine Global  Oceanic w…
 7   166  1979 <NA>         60       0 Puffinus gravis Marine Global  Oceanic w…
 8   166  1979 <NA>         16       0 Puffinus gravis Marine Global  Oceanic w…
 9   166  1979 <NA>          1       0 Puffinus gravis Marine Global  Oceanic w…
10   166  1979 <NA>        150       0 Puffinus gravis Marine Global  Oceanic w…
# ℹ 326,517 more rows
# ℹ 6 more variables: PROTECTED_AREA <lgl>, BIOME_MAP <chr>, TAXA <chr>,
#   ORGANISMS <chr>, CENT_LAT <dbl>, CENT_LONG <dbl>

$Amphibians
# A tibble: 2,446 × 15
      id  year plot  abundance biomass sp                  REALM CLIMATE HABITAT
   <dbl> <dbl> <chr>     <dbl>   <dbl> <chr>               <chr> <chr>   <chr>  
 1   305  1980 <NA>         12       0 Desmognathus quadr… Terr… Temper… Appala…
 2   305  1981 <NA>          4       0 Desmognathus aeneus Terr… Temper… Appala…
 3   305  1981 <NA>         20       0 Desmognathus monti… Terr… Temper… Appala…
 4   305  1976 <NA>          8       0 Desmognathus aeneus Terr… Temper… Appala…
 5   305  1976 <NA>         27       0 Desmognathus monti… Terr… Temper… Appala…
 6   305  1976 <NA>         15       0 Desmognathus ochro… Terr… Temper… Appala…
 7   305  1976 <NA>          7       0 Desmognathus quadr… Terr… Temper… Appala…
 8   305  1977 <NA>          7       0 Desmognathus aeneus Terr… Temper… Appala…
 9   305  1977 <NA>         22       0 Desmognathus monti… Terr… Temper… Appala…
10   305  1977 <NA>         18       0 Desmognathus ochro… Terr… Temper… Appala…
# ℹ 2,436 more rows
# ℹ 6 more variables: PROTECTED_AREA <lgl>, BIOME_MAP <chr>, TAXA <chr>,
#   ORGANISMS <chr>, CENT_LAT <dbl>, CENT_LONG <dbl>

$Benthos
# A tibble: 1,711,785 × 15
      id  year plot  abundance biomass sp                  REALM CLIMATE HABITAT
   <dbl> <dbl> <chr>     <dbl>   <dbl> <chr>               <chr> <chr>   <chr>  
 1    76  1992 <NA>          2       0 Aphroditoidea       Mari… Temper… Estuar…
 2    76  1992 <NA>          5       0 Ascidiella scabra   Mari… Temper… Estuar…
 3    76  1992 <NA>          4       0 Asterias rubens     Mari… Temper… Estuar…
 4    76  1992 <NA>          9       0 Calliostoma zyziph… Mari… Temper… Estuar…
 5    76  1992 <NA>         10       0 Crepidula fornicata Mari… Temper… Estuar…
 6    76  1992 <NA>          1       0 Gibbula tumida      Mari… Temper… Estuar…
 7    76  1992 <NA>          1       0 Hippolyte varians   Mari… Temper… Estuar…
 8    76  1992 <NA>          1       0 Hyas coarctatus     Mari… Temper… Estuar…
 9    76  1992 <NA>          1       0 Liocarcinus puber   Mari… Temper… Estuar…
10    76  1992 <NA>          1       0 Liparis sp          Mari… Temper… Estuar…
# ℹ 1,711,775 more rows
# ℹ 6 more variables: PROTECTED_AREA <lgl>, BIOME_MAP <chr>, TAXA <chr>,
#   ORGANISMS <chr>, CENT_LAT <dbl>, CENT_LONG <dbl>

$Birds
# A tibble: 1,487,942 × 15
      id  year plot  abundance biomass sp                  REALM CLIMATE HABITAT
   <dbl> <dbl> <chr>     <dbl>   <dbl> <chr>               <chr> <chr>   <chr>  
 1    39  1976 <NA>        7.5      NA Catharus guttatus   Terr… Temper… Decidu…
 2    39  1976 <NA>        8        NA Catharus ustulatus  Terr… Temper… Decidu…
 3    39  1976 <NA>       12        NA Dendroica caerules… Terr… Temper… Decidu…
 4    39  1977 <NA>        2.5      NA Catharus fuscescens Terr… Temper… Decidu…
 5    39  1977 <NA>        5        NA Catharus guttatus   Terr… Temper… Decidu…
 6    39  1977 <NA>        7        NA Catharus ustulatus  Terr… Temper… Decidu…
 7    39  1977 <NA>       11        NA Dendroica caerules… Terr… Temper… Decidu…
 8    39  1977 <NA>        2        NA Dendroica fusca     Terr… Temper… Decidu…
 9    39  1977 <NA>       28        NA Empidonax minimus   Terr… Temper… Decidu…
10    39  1977 <NA>        5        NA Hylocichla musteli… Terr… Temper… Decidu…
# ℹ 1,487,932 more rows
# ℹ 6 more variables: PROTECTED_AREA <lgl>, BIOME_MAP <chr>, TAXA <chr>,
#   ORGANISMS <chr>, CENT_LAT <dbl>, CENT_LONG <dbl>

$Fish
# A tibble: 2,294,445 × 15
      id  year plot  abundance biomass sp                  REALM CLIMATE HABITAT
   <dbl> <dbl> <chr>     <dbl>   <dbl> <chr>               <chr> <chr>   <chr>  
 1    45  2006 <NA>          1   4.80  Canthigaster solan… Mari… Tropic… Reef   
 2    45  2006 <NA>          2   0.630 Ctenogobiops feroc… Mari… Tropic… Reef   
 3    45  2006 <NA>          1  26.8   Echidna nebulosa    Mari… Tropic… Reef   
 4    45  2006 <NA>          1   1.87  Epinephelus merra   Mari… Tropic… Reef   
 5    45  2006 <NA>          1   8.31  Paracirrhites arca… Mari… Tropic… Reef   
 6    45  2006 <NA>          1   0.200 Pseudocheilinus he… Mari… Tropic… Reef   
 7    45  2006 <NA>         12  70.7   Stegastes nigricans Mari… Tropic… Reef   
 8    45  2006 <NA>          2  38.7   Acanthurus nigrofu… Mari… Tropic… Reef   
 9    45  2006 <NA>          1  46.2   Acanthurus trioste… Mari… Tropic… Reef   
10    45  2006 <NA>          1  18.3   Anampses twistii    Mari… Tropic… Reef   
# ℹ 2,294,435 more rows
# ℹ 6 more variables: PROTECTED_AREA <lgl>, BIOME_MAP <chr>, TAXA <chr>,
#   ORGANISMS <chr>, CENT_LAT <dbl>, CENT_LONG <dbl>

$`Freshwater invertebrates`
# A tibble: 93,966 × 15
      id  year plot  abundance biomass sp                  REALM CLIMATE HABITAT
   <dbl> <dbl> <chr>     <dbl>   <dbl> <chr>               <chr> <chr>   <chr>  
 1   237  1984 <NA>       2000       0 Daphnia pulicaria   Fres… Temper… Temper…
 2   237  1983 <NA>      28000       0 Notholca acuminata  Fres… Temper… Temper…
 3   237  1984 <NA>       8000       0 Keratella quadrata  Fres… Temper… Temper…
 4   237  1984 <NA>      19000       0 Notholca            Fres… Temper… Temper…
 5   237  1984 <NA>      11000       0 Synchaeta           Fres… Temper… Temper…
 6   237  1984 <NA>     768000       0 Conochiloides nata… Fres… Temper… Temper…
 7   237  1984 <NA>     156000       0 Cyclopoida copepod… Fres… Temper… Temper…
 8   237  1984 <NA>      16000       0 Daphnia mendotae    Fres… Temper… Temper…
 9   237  1983 <NA>     194000       0 Copepod nauplii     Fres… Temper… Temper…
10   237  1983 <NA>       9000       0 Polyarthra dolicho… Fres… Temper… Temper…
# ℹ 93,956 more rows
# ℹ 6 more variables: PROTECTED_AREA <lgl>, BIOME_MAP <chr>, TAXA <chr>,
#   ORGANISMS <chr>, CENT_LAT <dbl>, CENT_LONG <dbl>
…
