Diego P.F. Trindade - #3 Statistical analysis in ecology with broom
…
glance(model)

# A tibble: 1 × 12
  r.squared adj.r.squared sigma statistic    p.value    df  logLik    AIC    BIC
      <dbl>         <dbl> <dbl>     <dbl>      <dbl> <dbl>   <dbl>  <dbl>  <dbl>
1   0.00975       0.00933  93.6      23.3 0.00000150     1 -14096. 28197. 28215.
# ℹ 3 more variables: deviance <dbl>, df.residual <int>, nobs <int>

augment()

Whereas augment gives us fitted values, residuals etc.

augment(model)

# A tibble: 2,366 × 8
   richness  year .fitted  .resid    .hat .sigma      .cooksd .std.resid
      <int> <dbl>   <dbl>   <dbl>   <dbl>  <dbl>        <dbl>      <dbl>
 1       26  1923    40.5 -14.5   0.00352   93.6 0.0000428      -0.156  
 2       27  1926    41.8 -14.8   0.00322   93.6 0.0000405      -0.158  
 3       21  1927    42.2 -21.2   0.00313   93.6 0.0000808      -0.227  
 4       27  1929    43.0 -16.0   0.00294   93.6 0.0000434      -0.172  
 5       34  1930    43.5  -9.46  0.00285   93.6 0.0000146      -0.101  
 6       30  1931    43.9 -13.9   0.00276   93.6 0.0000305      -0.148  
 7       45  1932    44.3   0.707 0.00267   93.6 0.0000000765    0.00756
 8       50  1933    44.7   5.29  0.00258   93.6 0.00000415      0.0566 
 9       49  1934    45.1   3.87  0.00250   93.6 0.00000215      0.0414 
10       50  1935    45.5   4.46  0.00241   93.6 0.00000275      0.0477 
# ℹ 2,356 more rows
…
We can also nest the data by different groups, i.e. taxa and study id, in order to perform a different model for each study site and taxa.

rich_plot %>% 
  filter(n_year>30) %>%
group_by(TAXA,id) %>% 
nest() %>% 
  mutate(model = map(data, ~gam(richness ~ s(year, bs = "cs",k=-1), data=.x)),
         coefs = map(model, tidy, conf.int = TRUE),
         Rsq = map_dbl(model, ~summary(.)$r.sq)) %>% 
  unnest(coefs)

# A tibble: 24 × 10
# Groups:   TAXA, id [24]
      id TAXA         data     model term    edf ref.df statistic p.value    Rsq
   <dbl> <chr>        <list>   <lis> <chr> <dbl>  <dbl>     <dbl>   <dbl>  <dbl>
 1    39 Birds        <tibble> <gam> s(ye…  7.98      9     6.13  1.23e-5 0.538 
 2    46 Birds        <tibble> <gam> s(ye…  7.88      9    39.3   0       0.884 
 3    57 Fish         <tibble> <gam> s(ye…  7.29      9    12.2   1.80e-7 0.774 
 4   117 Marine inve… <tibble> <gam> s(ye…  8.33      9     4.36  4.04e-4 0.438 
 5   119 Fish         <tibble> <gam> s(ye…  8.50      9    29.3   0       0.866 
 6   147 Marine inve… <tibble> <gam> s(ye…  3.72      9     0.852 9.11e-2 0.0979
 7   148 Fish         <tibble> <gam> s(ye…  7.85      9    84.1   0       0.953 
 8   178 Fish         <tibble> <gam> s(ye…  5.84      9    21.6   0       0.835 
 9   214 Terrestrial… <tibble> <gam> s(ye…  7.45      9    50.0   0       0.837 
10   278 Fish         <tibble> <gam> s(ye…  7.23      9    22.1   0       0.835 
# ℹ 14 more rows
…
We have taxa, study id and .id representing each bootstrap.

boots_rich

# A tibble: 8,980 × 12
# Groups:   TAXA, id, .id [190]
   TAXA     id .id   data     richness  year .fitted .se.fit  .resid   .hat
   <chr> <dbl> <chr> <list>      <int> <dbl>   <dbl>   <dbl>   <dbl>  <dbl>
 1 Birds    39 01    <tibble>       24  2014    3.09  0.0650  0.412  0.0932
 2 Birds    39 01    <tibble>       20  1986    2.99  0.0458  0.0443 0.0415
 3 Birds    39 01    <tibble>       18  1998    3.00  0.0432 -0.472  0.0375
 4 Birds    39 01    <tibble>       19  2009    3.06  0.0482 -0.500  0.0494
 5 Birds    39 01    <tibble>       25  1992    2.99  0.0449  1.11   0.0399
 6 Birds    39 01    <tibble>       16  1984    2.99  0.0467 -0.892  0.0433
 7 Birds    39 01    <tibble>       21  1982    2.99  0.0483  0.243  0.0464
 8 Birds    39 01    <tibble>       24  1975    3.01  0.0648  0.801  0.0853
 9 Birds    39 01    <tibble>       19  1979    3.00  0.0529 -0.236  0.0562
10 Birds    39 01    <tibble>       23  2011    3.07  0.0534  0.306  0.0615
# ℹ 8,970 more rows
# ℹ 2 more variables: .sigma <lgl>, .cooksd <dbl>
…
